{
  "id": 310,
  "scheduledDate": "2019-05-17",
  "questions": [
    {
      "id": 318,
      "question": "What type of organism makes up the oldest known fossil?",
      "answer1": "Virus",
      "answer2": "Algae",
      "answer3": "Bacteria",
      "rightAnswer": "Algae",
      "type": {
        "id": 5,
        "type": "Science"
      }
    },
    {
      "id": 160,
      "question": "Pure water has a pH level of a around?",
      "answer1": "7",
      "answer2": "8",
      "answer3": "6",
      "rightAnswer": "7",
      "type": {
        "id": 5,
        "type": "Science"
      }
    },
    {
      "id": 312,
      "question": "What makes a reptile a reptile?",
      "answer1": "Egg-laying",
      "answer2": "Looks after young",
      "answer3": "Cold blooded",
      "rightAnswer": "Egg-laying",
      "type": {
        "id": 5,
        "type": "Science"
      }
    },
    {
      "id": 317,
      "question": "Through which medium does sound travel fastest?",
      "answer1": "Air",
      "answer2": "Earth",
      "answer3": "Water",
      "rightAnswer": "Water",
      "type": {
        "id": 5,
        "type": "Science"
      }
    },
    {
      "id": 315,
      "question": "Which acid is present in lemon?",
      "answer1": "Lactic acid",
      "answer2": "Tartaric acid",
      "answer3": "Citric acid",
      "rightAnswer": "Citric acid",
      "type": {
        "id": 5,
        "type": "Science"
      }
    },
    {
      "id": 316,
      "question": "What is the strongest known magnet in the Universe?",
      "answer1": "A red giant",
      "answer2": "A sun",
      "answer3": "A Neutron Star",
      "rightAnswer": "A Neutron Star",
      "type": {
        "id": 5,
        "type": "Science"
      }
    },
    {
      "id": 313,
      "question": "Which organ of the body produces the fluid known as bile?",
      "answer1": "Liver",
      "answer2": "Pancreas",
      "answer3": "Kidney",
      "rightAnswer": "Liver",
      "type": {
        "id": 5,
        "type": "Science"
      }
    },
    {
      "id": 319,
      "question": "Which is the rarest blood type in humans?",
      "answer1": "O-",
      "answer2": "B+",
      "answer3": "AB-",
      "rightAnswer": "AB-",
      "type": {
        "id": 5,
        "type": "Science"
      }
    },
    {
      "id": 314,
      "question": "What do Proteins are consists of?",
      "answer1": "Fatty acids",
      "answer2": "Amino acids",
      "answer3": "Nucleic Acids",
      "rightAnswer": "Amino acids",
      "type": {
        "id": 5,
        "type": "Science"
      }
    },
    {
      "id": 311,
      "question": "Which of the following is a large blood vessel that carries blood away from the heart? ",
      "answer1": "Artery",
      "answer2": "Vein",
      "answer3": "Capillary",
      "rightAnswer": "Artery",
      "type": {
        "id": 5,
        "type": "Science"
      }
    }
  ],
  "type": {
    "id": 5,
    "type": "Science"
  }
}